^C:\USERS\JOSHOYJIM\DESKTOP\ENTI2018\UDP\PRACTICAUDP\NUEVAPLANTILLA\GAMELIB\PLAYERINFO.CPP
/c /Zi /nologo /W3 /WX- /diagnostics:classic /O2 /Oi /GL /D NDEBUG /D _LIB /D _UNICODE /D UNICODE /Gm- /EHsc /MD /GS /Gy /fp:precise /Zc:wchar_t /Zc:forScope /Zc:inline /Fo"X64\RELEASE\\" /Fd"X64\RELEASE\GAMELIB.PDB" /Gd /TP C:\USERS\JOSHOYJIM\DESKTOP\ENTI2018\UDP\PRACTICAUDP\NUEVAPLANTILLA\GAMELIB\PLAYERINFO.CPP
^D:\ENTI\3R GRAU(2018)\REDES\PRACTICAUDP\NUEVAPLANTILLA\GAMELIB\PLAYERINFO.CPP
/c /Zi /nologo /W3 /WX- /diagnostics:classic /O2 /Oi /GL /D NDEBUG /D _LIB /D _UNICODE /D UNICODE /Gm- /EHsc /MD /GS /Gy /fp:precise /Zc:wchar_t /Zc:forScope /Zc:inline /Fo"X64\RELEASE\\" /Fd"X64\RELEASE\GAMELIB.PDB" /Gd /TP /FC D:\ENTI\3R GRAU(2018)\REDES\PRACTICAUDP\NUEVAPLANTILLA\GAMELIB\PLAYERINFO.CPP
