^C:\USERS\XAVIE\DESKTOP\PRACTICAUDP\NUEVAPLANTILLA\GAMESERVER\SEVER.CPP|C:\USERS\XAVIE\DESKTOP\PRACTICAUDP\NUEVAPLANTILLA\GAMESERVER\SOURCE.CPP
C:\USERS\XAVIE\DESKTOP\PRACTICAUDP\NUEVAPLANTILLA\GAMESERVER\X64\DEBUG\VC141.PDB
C:\USERS\XAVIE\DESKTOP\PRACTICAUDP\NUEVAPLANTILLA\GAMESERVER\X64\DEBUG\VC141.IDB
C:\USERS\XAVIE\DESKTOP\PRACTICAUDP\NUEVAPLANTILLA\GAMESERVER\X64\DEBUG\SOURCE.OBJ
C:\USERS\XAVIE\DESKTOP\PRACTICAUDP\NUEVAPLANTILLA\GAMESERVER\X64\DEBUG\SEVER.OBJ
^C:\USERS\XAVIE\DESKTOP\PRACTICAUDP\NUEVAPLANTILLA\GAMESERVER\SOURCE.CPP
C:\USERS\XAVIE\DESKTOP\PRACTICAUDP\NUEVAPLANTILLA\GAMESERVER\X64\DEBUG\VC141.PDB
^C:\USERS\XAVIE\DESKTOP\PRACTICAUDP\NUEVAPLANTILLA\GAMESERVER\SEVER.CPP
C:\USERS\XAVIE\DESKTOP\PRACTICAUDP\NUEVAPLANTILLA\GAMESERVER\X64\DEBUG\VC141.PDB
C:\USERS\XAVIE\DESKTOP\PRACTICAUDP\NUEVAPLANTILLA\GAMESERVER\X64\DEBUG\VC141.IDB
C:\USERS\XAVIE\DESKTOP\PRACTICAUDP\NUEVAPLANTILLA\GAMESERVER\X64\DEBUG\SEVER.OBJ
