^C:\USERS\XAVIE\DESKTOP\PRACTICAUDP\NUEVAPLANTILLA\GAMECLIENT\CLIENTE.CPP
C:\PROGRAM FILES (X86)\MICROSOFT VISUAL STUDIO\2017\PROFESSIONAL\VC\TOOLS\MSVC\14.13.26128\INCLUDE\IOSTREAM
C:\PROGRAM FILES (X86)\MICROSOFT VISUAL STUDIO\2017\PROFESSIONAL\VC\TOOLS\MSVC\14.13.26128\INCLUDE\ISTREAM
C:\PROGRAM FILES (X86)\MICROSOFT VISUAL STUDIO\2017\PROFESSIONAL\VC\TOOLS\MSVC\14.13.26128\INCLUDE\OSTREAM
C:\PROGRAM FILES (X86)\MICROSOFT VISUAL STUDIO\2017\PROFESSIONAL\VC\TOOLS\MSVC\14.13.26128\INCLUDE\IOS
C:\PROGRAM FILES (X86)\MICROSOFT VISUAL STUDIO\2017\PROFESSIONAL\VC\TOOLS\MSVC\14.13.26128\INCLUDE\XLOCNUM
C:\PROGRAM FILES (X86)\MICROSOFT VISUAL STUDIO\2017\PROFESSIONAL\VC\TOOLS\MSVC\14.13.26128\INCLUDE\CLIMITS
C:\PROGRAM FILES (X86)\MICROSOFT VISUAL STUDIO\2017\PROFESSIONAL\VC\TOOLS\MSVC\14.13.26128\INCLUDE\YVALS.H
C:\PROGRAM FILES (X86)\MICROSOFT VISUAL STUDIO\2017\PROFESSIONAL\VC\TOOLS\MSVC\14.13.26128\INCLUDE\XKEYCHECK.H
C:\PROGRAM FILES (X86)\MICROSOFT VISUAL STUDIO\2017\PROFESSIONAL\VC\TOOLS\MSVC\14.13.26128\INCLUDE\CRTDEFS.H
C:\PROGRAM FILES (X86)\MICROSOFT VISUAL STUDIO\2017\PROFESSIONAL\VC\TOOLS\MSVC\14.13.26128\INCLUDE\VCRUNTIME.H
C:\PROGRAM FILES (X86)\MICROSOFT VISUAL STUDIO\2017\PROFESSIONAL\VC\TOOLS\MSVC\14.13.26128\INCLUDE\SAL.H
C:\PROGRAM FILES (X86)\MICROSOFT VISUAL STUDIO\2017\PROFESSIONAL\VC\TOOLS\MSVC\14.13.26128\INCLUDE\CONCURRENCYSAL.H
C:\PROGRAM FILES (X86)\MICROSOFT VISUAL STUDIO\2017\PROFESSIONAL\VC\TOOLS\MSVC\14.13.26128\INCLUDE\VADEFS.H
C:\PROGRAM FILES (X86)\WINDOWS KITS\10\INCLUDE\10.0.16299.0\UCRT\CORECRT.H
C:\PROGRAM FILES (X86)\MICROSOFT VISUAL STUDIO\2017\PROFESSIONAL\VC\TOOLS\MSVC\14.13.26128\INCLUDE\USE_ANSI.H
C:\PROGRAM FILES (X86)\MICROSOFT VISUAL STUDIO\2017\PROFESSIONAL\VC\TOOLS\MSVC\14.13.26128\INCLUDE\LIMITS.H
C:\PROGRAM FILES (X86)\MICROSOFT VISUAL STUDIO\2017\PROFESSIONAL\VC\TOOLS\MSVC\14.13.26128\INCLUDE\CMATH
C:\PROGRAM FILES (X86)\MICROSOFT VISUAL STUDIO\2017\PROFESSIONAL\VC\TOOLS\MSVC\14.13.26128\INCLUDE\CSTDLIB
C:\PROGRAM FILES (X86)\WINDOWS KITS\10\INCLUDE\10.0.16299.0\UCRT\STDLIB.H
C:\PROGRAM FILES (X86)\WINDOWS KITS\10\INCLUDE\10.0.16299.0\UCRT\CORECRT_MALLOC.H
C:\PROGRAM FILES (X86)\WINDOWS KITS\10\INCLUDE\10.0.16299.0\UCRT\CORECRT_SEARCH.H
C:\PROGRAM FILES (X86)\WINDOWS KITS\10\INCLUDE\10.0.16299.0\UCRT\STDDEF.H
C:\PROGRAM FILES (X86)\WINDOWS KITS\10\INCLUDE\10.0.16299.0\UCRT\CORECRT_WSTDLIB.H
C:\PROGRAM FILES (X86)\WINDOWS KITS\10\INCLUDE\10.0.16299.0\UCRT\MATH.H
C:\PROGRAM FILES (X86)\WINDOWS KITS\10\INCLUDE\10.0.16299.0\UCRT\CORECRT_MATH.H
C:\PROGRAM FILES (X86)\MICROSOFT VISUAL STUDIO\2017\PROFESSIONAL\VC\TOOLS\MSVC\14.13.26128\INCLUDE\XTGMATH.H
C:\PROGRAM FILES (X86)\MICROSOFT VISUAL STUDIO\2017\PROFESSIONAL\VC\TOOLS\MSVC\14.13.26128\INCLUDE\XTR1COMMON
C:\PROGRAM FILES (X86)\MICROSOFT VISUAL STUDIO\2017\PROFESSIONAL\VC\TOOLS\MSVC\14.13.26128\INCLUDE\CSTDIO
C:\PROGRAM FILES (X86)\WINDOWS KITS\10\INCLUDE\10.0.16299.0\UCRT\STDIO.H
C:\PROGRAM FILES (X86)\WINDOWS KITS\10\INCLUDE\10.0.16299.0\UCRT\CORECRT_WSTDIO.H
C:\PROGRAM FILES (X86)\WINDOWS KITS\10\INCLUDE\10.0.16299.0\UCRT\CORECRT_STDIO_CONFIG.H
C:\PROGRAM FILES (X86)\MICROSOFT VISUAL STUDIO\2017\PROFESSIONAL\VC\TOOLS\MSVC\14.13.26128\INCLUDE\STREAMBUF
C:\PROGRAM FILES (X86)\MICROSOFT VISUAL STUDIO\2017\PROFESSIONAL\VC\TOOLS\MSVC\14.13.26128\INCLUDE\XIOSBASE
C:\PROGRAM FILES (X86)\MICROSOFT VISUAL STUDIO\2017\PROFESSIONAL\VC\TOOLS\MSVC\14.13.26128\INCLUDE\XLOCALE
C:\PROGRAM FILES (X86)\MICROSOFT VISUAL STUDIO\2017\PROFESSIONAL\VC\TOOLS\MSVC\14.13.26128\INCLUDE\CSTRING
C:\PROGRAM FILES (X86)\WINDOWS KITS\10\INCLUDE\10.0.16299.0\UCRT\STRING.H
C:\PROGRAM FILES (X86)\WINDOWS KITS\10\INCLUDE\10.0.16299.0\UCRT\CORECRT_MEMORY.H
C:\PROGRAM FILES (X86)\WINDOWS KITS\10\INCLUDE\10.0.16299.0\UCRT\CORECRT_MEMCPY_S.H
C:\PROGRAM FILES (X86)\WINDOWS KITS\10\INCLUDE\10.0.16299.0\UCRT\ERRNO.H
C:\PROGRAM FILES (X86)\MICROSOFT VISUAL STUDIO\2017\PROFESSIONAL\VC\TOOLS\MSVC\14.13.26128\INCLUDE\VCRUNTIME_STRING.H
C:\PROGRAM FILES (X86)\WINDOWS KITS\10\INCLUDE\10.0.16299.0\UCRT\CORECRT_WSTRING.H
C:\PROGRAM FILES (X86)\MICROSOFT VISUAL STUDIO\2017\PROFESSIONAL\VC\TOOLS\MSVC\14.13.26128\INCLUDE\STDEXCEPT
C:\PROGRAM FILES (X86)\MICROSOFT VISUAL STUDIO\2017\PROFESSIONAL\VC\TOOLS\MSVC\14.13.26128\INCLUDE\EXCEPTION
C:\PROGRAM FILES (X86)\MICROSOFT VISUAL STUDIO\2017\PROFESSIONAL\VC\TOOLS\MSVC\14.13.26128\INCLUDE\TYPE_TRAITS
C:\PROGRAM FILES (X86)\MICROSOFT VISUAL STUDIO\2017\PROFESSIONAL\VC\TOOLS\MSVC\14.13.26128\INCLUDE\XSTDDEF
C:\PROGRAM FILES (X86)\MICROSOFT VISUAL STUDIO\2017\PROFESSIONAL\VC\TOOLS\MSVC\14.13.26128\INCLUDE\CSTDDEF
C:\PROGRAM FILES (X86)\MICROSOFT VISUAL STUDIO\2017\PROFESSIONAL\VC\TOOLS\MSVC\14.13.26128\INCLUDE\INITIALIZER_LIST
C:\PROGRAM FILES (X86)\WINDOWS KITS\10\INCLUDE\10.0.16299.0\UCRT\MALLOC.H
C:\PROGRAM FILES (X86)\MICROSOFT VISUAL STUDIO\2017\PROFESSIONAL\VC\TOOLS\MSVC\14.13.26128\INCLUDE\VCRUNTIME_EXCEPTION.H
C:\PROGRAM FILES (X86)\MICROSOFT VISUAL STUDIO\2017\PROFESSIONAL\VC\TOOLS\MSVC\14.13.26128\INCLUDE\EH.H
C:\PROGRAM FILES (X86)\WINDOWS KITS\10\INCLUDE\10.0.16299.0\UCRT\CORECRT_TERMINATE.H
C:\PROGRAM FILES (X86)\MICROSOFT VISUAL STUDIO\2017\PROFESSIONAL\VC\TOOLS\MSVC\14.13.26128\INCLUDE\XSTRING
C:\PROGRAM FILES (X86)\MICROSOFT VISUAL STUDIO\2017\PROFESSIONAL\VC\TOOLS\MSVC\14.13.26128\INCLUDE\XMEMORY0
C:\PROGRAM FILES (X86)\MICROSOFT VISUAL STUDIO\2017\PROFESSIONAL\VC\TOOLS\MSVC\14.13.26128\INCLUDE\CSTDINT
C:\PROGRAM FILES (X86)\MICROSOFT VISUAL STUDIO\2017\PROFESSIONAL\VC\TOOLS\MSVC\14.13.26128\INCLUDE\STDINT.H
C:\PROGRAM FILES (X86)\MICROSOFT VISUAL STUDIO\2017\PROFESSIONAL\VC\TOOLS\MSVC\14.13.26128\INCLUDE\LIMITS
C:\PROGRAM FILES (X86)\MICROSOFT VISUAL STUDIO\2017\PROFESSIONAL\VC\TOOLS\MSVC\14.13.26128\INCLUDE\YMATH.H
C:\PROGRAM FILES (X86)\MICROSOFT VISUAL STUDIO\2017\PROFESSIONAL\VC\TOOLS\MSVC\14.13.26128\INCLUDE\CFLOAT
C:\PROGRAM FILES (X86)\WINDOWS KITS\10\INCLUDE\10.0.16299.0\UCRT\FLOAT.H
C:\PROGRAM FILES (X86)\MICROSOFT VISUAL STUDIO\2017\PROFESSIONAL\VC\TOOLS\MSVC\14.13.26128\INCLUDE\CWCHAR
C:\PROGRAM FILES (X86)\WINDOWS KITS\10\INCLUDE\10.0.16299.0\UCRT\WCHAR.H
C:\PROGRAM FILES (X86)\WINDOWS KITS\10\INCLUDE\10.0.16299.0\UCRT\CORECRT_WCONIO.H
C:\PROGRAM FILES (X86)\WINDOWS KITS\10\INCLUDE\10.0.16299.0\UCRT\CORECRT_WCTYPE.H
C:\PROGRAM FILES (X86)\WINDOWS KITS\10\INCLUDE\10.0.16299.0\UCRT\CORECRT_WDIRECT.H
C:\PROGRAM FILES (X86)\WINDOWS KITS\10\INCLUDE\10.0.16299.0\UCRT\CORECRT_WIO.H
C:\PROGRAM FILES (X86)\WINDOWS KITS\10\INCLUDE\10.0.16299.0\UCRT\CORECRT_SHARE.H
C:\PROGRAM FILES (X86)\WINDOWS KITS\10\INCLUDE\10.0.16299.0\UCRT\CORECRT_WPROCESS.H
C:\PROGRAM FILES (X86)\WINDOWS KITS\10\INCLUDE\10.0.16299.0\UCRT\CORECRT_WTIME.H
C:\PROGRAM FILES (X86)\WINDOWS KITS\10\INCLUDE\10.0.16299.0\UCRT\SYS\STAT.H
C:\PROGRAM FILES (X86)\WINDOWS KITS\10\INCLUDE\10.0.16299.0\UCRT\SYS\TYPES.H
C:\PROGRAM FILES (X86)\MICROSOFT VISUAL STUDIO\2017\PROFESSIONAL\VC\TOOLS\MSVC\14.13.26128\INCLUDE\NEW
C:\PROGRAM FILES (X86)\MICROSOFT VISUAL STUDIO\2017\PROFESSIONAL\VC\TOOLS\MSVC\14.13.26128\INCLUDE\VCRUNTIME_NEW.H
C:\PROGRAM FILES (X86)\MICROSOFT VISUAL STUDIO\2017\PROFESSIONAL\VC\TOOLS\MSVC\14.13.26128\INCLUDE\XUTILITY
C:\PROGRAM FILES (X86)\MICROSOFT VISUAL STUDIO\2017\PROFESSIONAL\VC\TOOLS\MSVC\14.13.26128\INCLUDE\UTILITY
C:\PROGRAM FILES (X86)\MICROSOFT VISUAL STUDIO\2017\PROFESSIONAL\VC\TOOLS\MSVC\14.13.26128\INCLUDE\IOSFWD
C:\PROGRAM FILES (X86)\WINDOWS KITS\10\INCLUDE\10.0.16299.0\UCRT\CRTDBG.H
C:\PROGRAM FILES (X86)\MICROSOFT VISUAL STUDIO\2017\PROFESSIONAL\VC\TOOLS\MSVC\14.13.26128\INCLUDE\VCRUNTIME_NEW_DEBUG.H
C:\PROGRAM FILES (X86)\MICROSOFT VISUAL STUDIO\2017\PROFESSIONAL\VC\TOOLS\MSVC\14.13.26128\INCLUDE\XATOMIC0.H
C:\PROGRAM FILES (X86)\MICROSOFT VISUAL STUDIO\2017\PROFESSIONAL\VC\TOOLS\MSVC\14.13.26128\INCLUDE\INTRIN0.H
C:\PROGRAM FILES (X86)\MICROSOFT VISUAL STUDIO\2017\PROFESSIONAL\VC\TOOLS\MSVC\14.13.26128\INCLUDE\TYPEINFO
C:\PROGRAM FILES (X86)\MICROSOFT VISUAL STUDIO\2017\PROFESSIONAL\VC\TOOLS\MSVC\14.13.26128\INCLUDE\VCRUNTIME_TYPEINFO.H
C:\PROGRAM FILES (X86)\MICROSOFT VISUAL STUDIO\2017\PROFESSIONAL\VC\TOOLS\MSVC\14.13.26128\INCLUDE\XLOCINFO
C:\PROGRAM FILES (X86)\MICROSOFT VISUAL STUDIO\2017\PROFESSIONAL\VC\TOOLS\MSVC\14.13.26128\INCLUDE\XLOCINFO.H
C:\PROGRAM FILES (X86)\WINDOWS KITS\10\INCLUDE\10.0.16299.0\UCRT\CTYPE.H
C:\PROGRAM FILES (X86)\WINDOWS KITS\10\INCLUDE\10.0.16299.0\UCRT\LOCALE.H
C:\PROGRAM FILES (X86)\MICROSOFT VISUAL STUDIO\2017\PROFESSIONAL\VC\TOOLS\MSVC\14.13.26128\INCLUDE\XFACET
C:\PROGRAM FILES (X86)\MICROSOFT VISUAL STUDIO\2017\PROFESSIONAL\VC\TOOLS\MSVC\14.13.26128\INCLUDE\SYSTEM_ERROR
C:\PROGRAM FILES (X86)\MICROSOFT VISUAL STUDIO\2017\PROFESSIONAL\VC\TOOLS\MSVC\14.13.26128\INCLUDE\CERRNO
C:\PROGRAM FILES (X86)\MICROSOFT VISUAL STUDIO\2017\PROFESSIONAL\VC\TOOLS\MSVC\14.13.26128\INCLUDE\XCALL_ONCE.H
C:\PROGRAM FILES (X86)\WINDOWS KITS\10\INCLUDE\10.0.16299.0\UCRT\SHARE.H
C:\PROGRAM FILES (X86)\MICROSOFT VISUAL STUDIO\2017\PROFESSIONAL\VC\TOOLS\MSVC\14.13.26128\INCLUDE\THREAD
C:\PROGRAM FILES (X86)\MICROSOFT VISUAL STUDIO\2017\PROFESSIONAL\VC\TOOLS\MSVC\14.13.26128\INCLUDE\FUNCTIONAL
C:\PROGRAM FILES (X86)\MICROSOFT VISUAL STUDIO\2017\PROFESSIONAL\VC\TOOLS\MSVC\14.13.26128\INCLUDE\TUPLE
C:\PROGRAM FILES (X86)\MICROSOFT VISUAL STUDIO\2017\PROFESSIONAL\VC\TOOLS\MSVC\14.13.26128\INCLUDE\XFUNCTIONAL
C:\PROGRAM FILES (X86)\MICROSOFT VISUAL STUDIO\2017\PROFESSIONAL\VC\TOOLS\MSVC\14.13.26128\INCLUDE\CHRONO
C:\PROGRAM FILES (X86)\MICROSOFT VISUAL STUDIO\2017\PROFESSIONAL\VC\TOOLS\MSVC\14.13.26128\INCLUDE\RATIO
C:\PROGRAM FILES (X86)\WINDOWS KITS\10\INCLUDE\10.0.16299.0\UCRT\TIME.H
C:\PROGRAM FILES (X86)\MICROSOFT VISUAL STUDIO\2017\PROFESSIONAL\VC\TOOLS\MSVC\14.13.26128\INCLUDE\THR\XTIMEC.H
C:\PROGRAM FILES (X86)\MICROSOFT VISUAL STUDIO\2017\PROFESSIONAL\VC\TOOLS\MSVC\14.13.26128\INCLUDE\THR\XTHRCOMMON.H
C:\PROGRAM FILES (X86)\MICROSOFT VISUAL STUDIO\2017\PROFESSIONAL\VC\TOOLS\MSVC\14.13.26128\INCLUDE\MEMORY
C:\PROGRAM FILES (X86)\MICROSOFT VISUAL STUDIO\2017\PROFESSIONAL\VC\TOOLS\MSVC\14.13.26128\INCLUDE\XMEMORY
C:\PROGRAM FILES (X86)\MICROSOFT VISUAL STUDIO\2017\PROFESSIONAL\VC\TOOLS\MSVC\14.13.26128\INCLUDE\THR\XTHREAD
C:\PROGRAM FILES (X86)\MICROSOFT VISUAL STUDIO\2017\PROFESSIONAL\VC\TOOLS\MSVC\14.13.26128\INCLUDE\THR\XTIME
C:\PROGRAM FILES (X86)\MICROSOFT VISUAL STUDIO\2017\PROFESSIONAL\VC\TOOLS\MSVC\14.13.26128\INCLUDE\THR\XTHREADS.H
C:\USERS\XAVIE\DESKTOP\PRACTICAUDP\NUEVAPLANTILLA\DEPS64\INCLUDE\SFML\GRAPHICS.HPP
C:\USERS\XAVIE\DESKTOP\PRACTICAUDP\NUEVAPLANTILLA\DEPS64\INCLUDE\SFML\WINDOW.HPP
C:\USERS\XAVIE\DESKTOP\PRACTICAUDP\NUEVAPLANTILLA\DEPS64\INCLUDE\SFML\SYSTEM.HPP
C:\USERS\XAVIE\DESKTOP\PRACTICAUDP\NUEVAPLANTILLA\DEPS64\INCLUDE\SFML\CONFIG.HPP
C:\USERS\XAVIE\DESKTOP\PRACTICAUDP\NUEVAPLANTILLA\DEPS64\INCLUDE\SFML\SYSTEM\CLOCK.HPP
C:\USERS\XAVIE\DESKTOP\PRACTICAUDP\NUEVAPLANTILLA\DEPS64\INCLUDE\SFML\SYSTEM\EXPORT.HPP
C:\USERS\XAVIE\DESKTOP\PRACTICAUDP\NUEVAPLANTILLA\DEPS64\INCLUDE\SFML\SYSTEM\TIME.HPP
C:\USERS\XAVIE\DESKTOP\PRACTICAUDP\NUEVAPLANTILLA\DEPS64\INCLUDE\SFML\SYSTEM\ERR.HPP
C:\USERS\XAVIE\DESKTOP\PRACTICAUDP\NUEVAPLANTILLA\DEPS64\INCLUDE\SFML\SYSTEM\FILEINPUTSTREAM.HPP
C:\USERS\XAVIE\DESKTOP\PRACTICAUDP\NUEVAPLANTILLA\DEPS64\INCLUDE\SFML\SYSTEM\INPUTSTREAM.HPP
C:\USERS\XAVIE\DESKTOP\PRACTICAUDP\NUEVAPLANTILLA\DEPS64\INCLUDE\SFML\SYSTEM\NONCOPYABLE.HPP
C:\PROGRAM FILES (X86)\MICROSOFT VISUAL STUDIO\2017\PROFESSIONAL\VC\TOOLS\MSVC\14.13.26128\INCLUDE\STRING
C:\PROGRAM FILES (X86)\MICROSOFT VISUAL STUDIO\2017\PROFESSIONAL\VC\TOOLS\MSVC\14.13.26128\INCLUDE\XSTRING_INSERT.H
C:\USERS\XAVIE\DESKTOP\PRACTICAUDP\NUEVAPLANTILLA\DEPS64\INCLUDE\SFML\SYSTEM\LOCK.HPP
C:\USERS\XAVIE\DESKTOP\PRACTICAUDP\NUEVAPLANTILLA\DEPS64\INCLUDE\SFML\SYSTEM\MEMORYINPUTSTREAM.HPP
C:\USERS\XAVIE\DESKTOP\PRACTICAUDP\NUEVAPLANTILLA\DEPS64\INCLUDE\SFML\SYSTEM\MUTEX.HPP
C:\USERS\XAVIE\DESKTOP\PRACTICAUDP\NUEVAPLANTILLA\DEPS64\INCLUDE\SFML\SYSTEM\SLEEP.HPP
C:\USERS\XAVIE\DESKTOP\PRACTICAUDP\NUEVAPLANTILLA\DEPS64\INCLUDE\SFML\SYSTEM\STRING.HPP
C:\USERS\XAVIE\DESKTOP\PRACTICAUDP\NUEVAPLANTILLA\DEPS64\INCLUDE\SFML\SYSTEM\UTF.HPP
C:\PROGRAM FILES (X86)\MICROSOFT VISUAL STUDIO\2017\PROFESSIONAL\VC\TOOLS\MSVC\14.13.26128\INCLUDE\ALGORITHM
C:\PROGRAM FILES (X86)\MICROSOFT VISUAL STUDIO\2017\PROFESSIONAL\VC\TOOLS\MSVC\14.13.26128\INCLUDE\LOCALE
C:\PROGRAM FILES (X86)\MICROSOFT VISUAL STUDIO\2017\PROFESSIONAL\VC\TOOLS\MSVC\14.13.26128\INCLUDE\XLOCBUF
C:\PROGRAM FILES (X86)\MICROSOFT VISUAL STUDIO\2017\PROFESSIONAL\VC\TOOLS\MSVC\14.13.26128\INCLUDE\XLOCMES
C:\PROGRAM FILES (X86)\MICROSOFT VISUAL STUDIO\2017\PROFESSIONAL\VC\TOOLS\MSVC\14.13.26128\INCLUDE\XLOCMON
C:\PROGRAM FILES (X86)\MICROSOFT VISUAL STUDIO\2017\PROFESSIONAL\VC\TOOLS\MSVC\14.13.26128\INCLUDE\XLOCTIME
C:\PROGRAM FILES (X86)\MICROSOFT VISUAL STUDIO\2017\PROFESSIONAL\VC\TOOLS\MSVC\14.13.26128\INCLUDE\CTIME
C:\USERS\XAVIE\DESKTOP\PRACTICAUDP\NUEVAPLANTILLA\DEPS64\INCLUDE\SFML\SYSTEM\UTF.INL
C:\PROGRAM FILES (X86)\MICROSOFT VISUAL STUDIO\2017\PROFESSIONAL\VC\TOOLS\MSVC\14.13.26128\INCLUDE\ITERATOR
C:\USERS\XAVIE\DESKTOP\PRACTICAUDP\NUEVAPLANTILLA\DEPS64\INCLUDE\SFML\SYSTEM\STRING.INL
C:\USERS\XAVIE\DESKTOP\PRACTICAUDP\NUEVAPLANTILLA\DEPS64\INCLUDE\SFML\SYSTEM\THREAD.HPP
C:\USERS\XAVIE\DESKTOP\PRACTICAUDP\NUEVAPLANTILLA\DEPS64\INCLUDE\SFML\SYSTEM\THREAD.INL
C:\USERS\XAVIE\DESKTOP\PRACTICAUDP\NUEVAPLANTILLA\DEPS64\INCLUDE\SFML\SYSTEM\THREADLOCAL.HPP
C:\USERS\XAVIE\DESKTOP\PRACTICAUDP\NUEVAPLANTILLA\DEPS64\INCLUDE\SFML\SYSTEM\THREADLOCALPTR.HPP
C:\USERS\XAVIE\DESKTOP\PRACTICAUDP\NUEVAPLANTILLA\DEPS64\INCLUDE\SFML\SYSTEM\THREADLOCALPTR.INL
C:\USERS\XAVIE\DESKTOP\PRACTICAUDP\NUEVAPLANTILLA\DEPS64\INCLUDE\SFML\SYSTEM\VECTOR2.HPP
C:\USERS\XAVIE\DESKTOP\PRACTICAUDP\NUEVAPLANTILLA\DEPS64\INCLUDE\SFML\SYSTEM\VECTOR2.INL
C:\USERS\XAVIE\DESKTOP\PRACTICAUDP\NUEVAPLANTILLA\DEPS64\INCLUDE\SFML\SYSTEM\VECTOR3.HPP
C:\USERS\XAVIE\DESKTOP\PRACTICAUDP\NUEVAPLANTILLA\DEPS64\INCLUDE\SFML\SYSTEM\VECTOR3.INL
C:\USERS\XAVIE\DESKTOP\PRACTICAUDP\NUEVAPLANTILLA\DEPS64\INCLUDE\SFML\WINDOW\CLIPBOARD.HPP
C:\USERS\XAVIE\DESKTOP\PRACTICAUDP\NUEVAPLANTILLA\DEPS64\INCLUDE\SFML\WINDOW\EXPORT.HPP
C:\USERS\XAVIE\DESKTOP\PRACTICAUDP\NUEVAPLANTILLA\DEPS64\INCLUDE\SFML\WINDOW\CONTEXT.HPP
C:\USERS\XAVIE\DESKTOP\PRACTICAUDP\NUEVAPLANTILLA\DEPS64\INCLUDE\SFML\WINDOW\GLRESOURCE.HPP
C:\USERS\XAVIE\DESKTOP\PRACTICAUDP\NUEVAPLANTILLA\DEPS64\INCLUDE\SFML\WINDOW\CONTEXTSETTINGS.HPP
C:\USERS\XAVIE\DESKTOP\PRACTICAUDP\NUEVAPLANTILLA\DEPS64\INCLUDE\SFML\WINDOW\CURSOR.HPP
C:\USERS\XAVIE\DESKTOP\PRACTICAUDP\NUEVAPLANTILLA\DEPS64\INCLUDE\SFML\WINDOW\EVENT.HPP
C:\USERS\XAVIE\DESKTOP\PRACTICAUDP\NUEVAPLANTILLA\DEPS64\INCLUDE\SFML\WINDOW\JOYSTICK.HPP
C:\USERS\XAVIE\DESKTOP\PRACTICAUDP\NUEVAPLANTILLA\DEPS64\INCLUDE\SFML\WINDOW\KEYBOARD.HPP
C:\USERS\XAVIE\DESKTOP\PRACTICAUDP\NUEVAPLANTILLA\DEPS64\INCLUDE\SFML\WINDOW\MOUSE.HPP
C:\USERS\XAVIE\DESKTOP\PRACTICAUDP\NUEVAPLANTILLA\DEPS64\INCLUDE\SFML\WINDOW\SENSOR.HPP
C:\USERS\XAVIE\DESKTOP\PRACTICAUDP\NUEVAPLANTILLA\DEPS64\INCLUDE\SFML\WINDOW\TOUCH.HPP
C:\USERS\XAVIE\DESKTOP\PRACTICAUDP\NUEVAPLANTILLA\DEPS64\INCLUDE\SFML\WINDOW\VIDEOMODE.HPP
C:\PROGRAM FILES (X86)\MICROSOFT VISUAL STUDIO\2017\PROFESSIONAL\VC\TOOLS\MSVC\14.13.26128\INCLUDE\VECTOR
C:\USERS\XAVIE\DESKTOP\PRACTICAUDP\NUEVAPLANTILLA\DEPS64\INCLUDE\SFML\WINDOW\WINDOW.HPP
C:\USERS\XAVIE\DESKTOP\PRACTICAUDP\NUEVAPLANTILLA\DEPS64\INCLUDE\SFML\WINDOW\WINDOWHANDLE.HPP
C:\USERS\XAVIE\DESKTOP\PRACTICAUDP\NUEVAPLANTILLA\DEPS64\INCLUDE\SFML\WINDOW\WINDOWSTYLE.HPP
C:\USERS\XAVIE\DESKTOP\PRACTICAUDP\NUEVAPLANTILLA\DEPS64\INCLUDE\SFML\GRAPHICS\BLENDMODE.HPP
C:\USERS\XAVIE\DESKTOP\PRACTICAUDP\NUEVAPLANTILLA\DEPS64\INCLUDE\SFML\GRAPHICS\EXPORT.HPP
C:\USERS\XAVIE\DESKTOP\PRACTICAUDP\NUEVAPLANTILLA\DEPS64\INCLUDE\SFML\GRAPHICS\CIRCLESHAPE.HPP
C:\USERS\XAVIE\DESKTOP\PRACTICAUDP\NUEVAPLANTILLA\DEPS64\INCLUDE\SFML\GRAPHICS\SHAPE.HPP
C:\USERS\XAVIE\DESKTOP\PRACTICAUDP\NUEVAPLANTILLA\DEPS64\INCLUDE\SFML\GRAPHICS\DRAWABLE.HPP
C:\USERS\XAVIE\DESKTOP\PRACTICAUDP\NUEVAPLANTILLA\DEPS64\INCLUDE\SFML\GRAPHICS\RENDERSTATES.HPP
C:\USERS\XAVIE\DESKTOP\PRACTICAUDP\NUEVAPLANTILLA\DEPS64\INCLUDE\SFML\GRAPHICS\TRANSFORM.HPP
C:\USERS\XAVIE\DESKTOP\PRACTICAUDP\NUEVAPLANTILLA\DEPS64\INCLUDE\SFML\GRAPHICS\RECT.HPP
C:\USERS\XAVIE\DESKTOP\PRACTICAUDP\NUEVAPLANTILLA\DEPS64\INCLUDE\SFML\GRAPHICS\RECT.INL
C:\USERS\XAVIE\DESKTOP\PRACTICAUDP\NUEVAPLANTILLA\DEPS64\INCLUDE\SFML\GRAPHICS\TRANSFORMABLE.HPP
C:\USERS\XAVIE\DESKTOP\PRACTICAUDP\NUEVAPLANTILLA\DEPS64\INCLUDE\SFML\GRAPHICS\VERTEXARRAY.HPP
C:\USERS\XAVIE\DESKTOP\PRACTICAUDP\NUEVAPLANTILLA\DEPS64\INCLUDE\SFML\GRAPHICS\VERTEX.HPP
C:\USERS\XAVIE\DESKTOP\PRACTICAUDP\NUEVAPLANTILLA\DEPS64\INCLUDE\SFML\GRAPHICS\COLOR.HPP
C:\USERS\XAVIE\DESKTOP\PRACTICAUDP\NUEVAPLANTILLA\DEPS64\INCLUDE\SFML\GRAPHICS\PRIMITIVETYPE.HPP
C:\USERS\XAVIE\DESKTOP\PRACTICAUDP\NUEVAPLANTILLA\DEPS64\INCLUDE\SFML\GRAPHICS\CONVEXSHAPE.HPP
C:\USERS\XAVIE\DESKTOP\PRACTICAUDP\NUEVAPLANTILLA\DEPS64\INCLUDE\SFML\GRAPHICS\FONT.HPP
C:\USERS\XAVIE\DESKTOP\PRACTICAUDP\NUEVAPLANTILLA\DEPS64\INCLUDE\SFML\GRAPHICS\GLYPH.HPP
C:\USERS\XAVIE\DESKTOP\PRACTICAUDP\NUEVAPLANTILLA\DEPS64\INCLUDE\SFML\GRAPHICS\TEXTURE.HPP
C:\USERS\XAVIE\DESKTOP\PRACTICAUDP\NUEVAPLANTILLA\DEPS64\INCLUDE\SFML\GRAPHICS\IMAGE.HPP
C:\PROGRAM FILES (X86)\MICROSOFT VISUAL STUDIO\2017\PROFESSIONAL\VC\TOOLS\MSVC\14.13.26128\INCLUDE\MAP
C:\PROGRAM FILES (X86)\MICROSOFT VISUAL STUDIO\2017\PROFESSIONAL\VC\TOOLS\MSVC\14.13.26128\INCLUDE\XTREE
C:\USERS\XAVIE\DESKTOP\PRACTICAUDP\NUEVAPLANTILLA\DEPS64\INCLUDE\SFML\GRAPHICS\RECTANGLESHAPE.HPP
C:\USERS\XAVIE\DESKTOP\PRACTICAUDP\NUEVAPLANTILLA\DEPS64\INCLUDE\SFML\GRAPHICS\RENDERTARGET.HPP
C:\USERS\XAVIE\DESKTOP\PRACTICAUDP\NUEVAPLANTILLA\DEPS64\INCLUDE\SFML\GRAPHICS\VIEW.HPP
C:\USERS\XAVIE\DESKTOP\PRACTICAUDP\NUEVAPLANTILLA\DEPS64\INCLUDE\SFML\GRAPHICS\RENDERTEXTURE.HPP
C:\USERS\XAVIE\DESKTOP\PRACTICAUDP\NUEVAPLANTILLA\DEPS64\INCLUDE\SFML\GRAPHICS\RENDERWINDOW.HPP
C:\USERS\XAVIE\DESKTOP\PRACTICAUDP\NUEVAPLANTILLA\DEPS64\INCLUDE\SFML\GRAPHICS\SHADER.HPP
C:\USERS\XAVIE\DESKTOP\PRACTICAUDP\NUEVAPLANTILLA\DEPS64\INCLUDE\SFML\GRAPHICS\GLSL.HPP
C:\USERS\XAVIE\DESKTOP\PRACTICAUDP\NUEVAPLANTILLA\DEPS64\INCLUDE\SFML\GRAPHICS\GLSL.INL
C:\USERS\XAVIE\DESKTOP\PRACTICAUDP\NUEVAPLANTILLA\DEPS64\INCLUDE\SFML\GRAPHICS\SPRITE.HPP
C:\USERS\XAVIE\DESKTOP\PRACTICAUDP\NUEVAPLANTILLA\DEPS64\INCLUDE\SFML\GRAPHICS\TEXT.HPP
C:\USERS\XAVIE\DESKTOP\PRACTICAUDP\NUEVAPLANTILLA\DEPS64\INCLUDE\SFML\GRAPHICS\VERTEXBUFFER.HPP
C:\USERS\XAVIE\DESKTOP\PRACTICAUDP\NUEVAPLANTILLA\GAMELIB\PLAYERINFO.H
C:\USERS\XAVIE\DESKTOP\PRACTICAUDP\NUEVAPLANTILLA\DEPS64\INCLUDE\SFML\NETWORK.HPP
C:\USERS\XAVIE\DESKTOP\PRACTICAUDP\NUEVAPLANTILLA\DEPS64\INCLUDE\SFML\NETWORK\FTP.HPP
C:\USERS\XAVIE\DESKTOP\PRACTICAUDP\NUEVAPLANTILLA\DEPS64\INCLUDE\SFML\NETWORK\EXPORT.HPP
C:\USERS\XAVIE\DESKTOP\PRACTICAUDP\NUEVAPLANTILLA\DEPS64\INCLUDE\SFML\NETWORK\TCPSOCKET.HPP
C:\USERS\XAVIE\DESKTOP\PRACTICAUDP\NUEVAPLANTILLA\DEPS64\INCLUDE\SFML\NETWORK\SOCKET.HPP
C:\USERS\XAVIE\DESKTOP\PRACTICAUDP\NUEVAPLANTILLA\DEPS64\INCLUDE\SFML\NETWORK\SOCKETHANDLE.HPP
C:\PROGRAM FILES (X86)\WINDOWS KITS\10\INCLUDE\10.0.16299.0\SHARED\BASETSD.H
C:\USERS\XAVIE\DESKTOP\PRACTICAUDP\NUEVAPLANTILLA\DEPS64\INCLUDE\SFML\NETWORK\HTTP.HPP
C:\USERS\XAVIE\DESKTOP\PRACTICAUDP\NUEVAPLANTILLA\DEPS64\INCLUDE\SFML\NETWORK\IPADDRESS.HPP
C:\USERS\XAVIE\DESKTOP\PRACTICAUDP\NUEVAPLANTILLA\DEPS64\INCLUDE\SFML\NETWORK\PACKET.HPP
C:\USERS\XAVIE\DESKTOP\PRACTICAUDP\NUEVAPLANTILLA\DEPS64\INCLUDE\SFML\NETWORK\SOCKETSELECTOR.HPP
C:\USERS\XAVIE\DESKTOP\PRACTICAUDP\NUEVAPLANTILLA\DEPS64\INCLUDE\SFML\NETWORK\TCPLISTENER.HPP
C:\USERS\XAVIE\DESKTOP\PRACTICAUDP\NUEVAPLANTILLA\DEPS64\INCLUDE\SFML\NETWORK\UDPSOCKET.HPP
^C:\USERS\XAVIE\DESKTOP\PRACTICAUDP\NUEVAPLANTILLA\GAMECLIENT\SOURCE.CPP
