^C:\USERS\XAVIE\DESKTOP\PRACTICAUDP\NUEVAPLANTILLA\GAMECLIENT\X64\DEBUG\CLIENTE.OBJ|C:\USERS\XAVIE\DESKTOP\PRACTICAUDP\NUEVAPLANTILLA\GAMECLIENT\X64\DEBUG\SOURCE.OBJ
C:\USERS\XAVIE\DESKTOP\PRACTICAUDP\NUEVAPLANTILLA\X64\DEBUG\GAMECLIENT.ILK
C:\USERS\XAVIE\DESKTOP\PRACTICAUDP\NUEVAPLANTILLA\X64\DEBUG\GAMECLIENT.EXE
C:\USERS\XAVIE\DESKTOP\PRACTICAUDP\NUEVAPLANTILLA\X64\DEBUG\GAMECLIENT.PDB
